<?xml version="1.0" encoding="UTF-8" standalone="no"?>
<!-- Created with Inkscape (http://www.inkscape.org/) -->

<svg
   xmlns:dc="http://purl.org/dc/elements/1.1/"
   xmlns:cc="http://creativecommons.org/ns#"
   xmlns:rdf="http://www.w3.org/1999/02/22-rdf-syntax-ns#"
   xmlns:svg="http://www.w3.org/2000/svg"
   xmlns="http://www.w3.org/2000/svg"
   xmlns:sodipodi="http://sodipodi.sourceforge.net/DTD/sodipodi-0.dtd"
   xmlns:inkscape="http://www.inkscape.org/namespaces/inkscape"
   width="33.675961mm"
   height="33.675961mm"
   viewBox="0 0 33.675961 33.675961"
   version="1.1"
   id="svg910"
   inkscape:version="0.92.3 (2405546, 2018-03-11)"
   sodipodi:docname="foxdot.svg">
  <defs
     id="defs904" />
  <sodipodi:namedview
     id="base"
     pagecolor="#ffffff"
     bordercolor="#666666"
     borderopacity="1.0"
     inkscape:pageopacity="0.0"
     inkscape:pageshadow="2"
     inkscape:zoom="0.35"
     inkscape:cx="349.3539"
     inkscape:cy="503.63961"
     inkscape:document-units="mm"
     inkscape:current-layer="layer1"
     showgrid="false"
     fit-margin-top="0"
     fit-margin-left="0"
     fit-margin-right="0"
     fit-margin-bottom="0"
     inkscape:window-width="1920"
     inkscape:window-height="1025"
     inkscape:window-x="0"
     inkscape:window-y="27"
     inkscape:window-maximized="1" />
  <metadata
     id="metadata907">
    <rdf:RDF>
      <cc:Work
         rdf:about="">
        <dc:format>image/svg+xml</dc:format>
        <dc:type
           rdf:resource="http://purl.org/dc/dcmitype/StillImage" />
        <dc:title></dc:title>
      </cc:Work>
    </rdf:RDF>
  </metadata>
  <g
     inkscape:label="Calque 1"
     inkscape:groupmode="layer"
     id="layer1"
     transform="translate(-13.400114,-248.41202)">
    <circle
       id="path21"
       cx="30.238094"
       cy="265.25"
       r="16.83798"
       style="stroke-width:0.26458332" />
    <g
       id="g879"
       transform="matrix(0.933577,0,0,0.933577,-28.209829,149.16831)">
      <text
         id="text25"
         y="131.66064"
         x="48.658577"
         style="font-style:normal;font-variant:normal;font-weight:normal;font-stretch:normal;font-size:7.13594866px;line-height:1.25;font-family:'Liberation Sans';-inkscape-font-specification:'Liberation Sans';letter-spacing:0px;word-spacing:0px;fill:#ffffff;fill-opacity:1;stroke:none;stroke-width:0.17839871"
         xml:space="preserve"><tspan
           style="font-style:normal;font-variant:normal;font-weight:normal;font-stretch:normal;font-family:'Liberation Sans';-inkscape-font-specification:'Liberation Sans';fill:#ffffff;stroke-width:0.17839871"
           y="131.66064"
           x="48.658577"
           id="tspan23"
           sodipodi:role="line">Fo    Dot</tspan></text>
      <path
         sodipodi:nodetypes="cc"
         inkscape:connector-curvature="0"
         id="path27"
         d="m 58.101056,131.44979 1.582774,-1.58278"
         style="fill:none;stroke:#ffffff;stroke-width:0.465;stroke-linecap:round;stroke-linejoin:miter;stroke-miterlimit:4;stroke-dasharray:none;stroke-opacity:1" />
      <path
         style="fill:none;stroke:#ffffff;stroke-width:0.465;stroke-linecap:round;stroke-linejoin:miter;stroke-miterlimit:4;stroke-dasharray:none;stroke-opacity:1"
         d="m 58.101056,128.28423 1.582774,1.58278"
         id="path837"
         inkscape:connector-curvature="0"
         sodipodi:nodetypes="cc" />
      <g
         transform="translate(0.09921875)"
         id="g868">
        <path
           sodipodi:nodetypes="cc"
           inkscape:connector-curvature="0"
           id="path839"
           d="m 60.502788,131.44979 1.582774,-1.58278"
           style="fill:none;stroke:#ffffff;stroke-width:0.465;stroke-linecap:round;stroke-linejoin:miter;stroke-miterlimit:4;stroke-dasharray:none;stroke-opacity:1" />
        <path
           style="fill:none;stroke:#ffffff;stroke-width:0.465;stroke-linecap:round;stroke-linejoin:miter;stroke-miterlimit:4;stroke-dasharray:none;stroke-opacity:1"
           d="m 60.502788,128.28423 1.582774,1.58278"
           id="path841"
           inkscape:connector-curvature="0"
           sodipodi:nodetypes="cc" />
        <path
           style="fill:none;stroke:#ffffff;stroke-width:0.465;stroke-linecap:round;stroke-linejoin:miter;stroke-miterlimit:4;stroke-dasharray:none;stroke-opacity:1"
           d="m 63.668336,131.44979 -1.582774,-1.58278"
           id="path843"
           inkscape:connector-curvature="0"
           sodipodi:nodetypes="cc" />
        <path
           sodipodi:nodetypes="cc"
           inkscape:connector-curvature="0"
           id="path845"
           d="m 63.668336,128.28423 -1.582774,1.58278"
           style="fill:none;stroke:#ffffff;stroke-width:0.465;stroke-linecap:round;stroke-linejoin:miter;stroke-miterlimit:4;stroke-dasharray:none;stroke-opacity:1" />
      </g>
    </g>
    <g
       id="g862"
       transform="matrix(0.6059215,0,0,0.6059215,-21.766328,168.35111)"
       style="stroke-width:1.65037882;stroke-miterlimit:4;stroke-dasharray:none">
      <path
         inkscape:connector-curvature="0"
         id="path853"
         d="m 94.276132,151.16972 2.951045,-2.76889"
         style="fill:none;stroke:#b24f32;stroke-width:1.65037882;stroke-linecap:round;stroke-linejoin:miter;stroke-miterlimit:4;stroke-dasharray:none;stroke-opacity:1"
         sodipodi:nodetypes="cc" />
      <path
         style="fill:none;stroke:#6aa68c;stroke-width:1.65037882;stroke-linecap:round;stroke-linejoin:miter;stroke-miterlimit:4;stroke-dasharray:none;stroke-opacity:1"
         d="m 66.750564,160.49209 c 0,-0.53454 18.307963,-16.97162 18.307963,-16.97162 L 104.90329,160.158"
         id="path855"
         inkscape:connector-curvature="0" />
      <path
         style="fill:none;stroke:#b24f32;stroke-width:1.65037882;stroke-linecap:round;stroke-linejoin:miter;stroke-miterlimit:4;stroke-dasharray:none;stroke-opacity:1"
         d="m 66.750564,148.26451 10.757599,9.35443 10.623962,-8.95353"
         id="path857"
         inkscape:connector-curvature="0" />
    </g>
  </g>
</svg>
